<?xml version="1.0" encoding="UTF-8"?>
<CustomTab xmlns="http://soap.sforce.com/2006/04/metadata">
    <description>Tenfold Call Analytics</description>
    <frameHeight>600</frameHeight>
    <hasSidebar>false</hasSidebar>
    <label>Call Analytics</label>
    <mobileReady>false</mobileReady>
    <motif>Custom62: Chalkboard</motif>
    <url>https://dashboard.callinize.com/analytics?tv=true&amp;refresh=1&amp;chart=hour&amp;interval=day&amp;talktime=false&amp;groupby=false</url>
    <urlEncodingKey>UTF-8</urlEncodingKey>
</CustomTab>
